{
    "filename": "kn-khp",
    "pages": [
        {
            "pageNum": 2,
            "pali": {
                "entries": [
                    {
                        "type": "centered",
                        "text": "සුත්තන්තපිටකෙ",
                        "level": 3
                    },
                    {
                        "type": "centered",
                        "text": "ඛුද්දකනිකායො",
                        "level": 5
                    },
                    {
                        "type": "centered",
                        "text": "(පඨමො ගත්ථො)",
                        "level": 3
                    },
                    {
                        "type": "heading",
                        "text": "ඛුද්දකපාඨපාළි",
                        "level": 4
                    },
                    {
                        "type": "centered",
                        "text": "නමො තස්ස භගවතො අරහතො සම්මාසම්බුද්ධස්ස.",
                        "level": 1
                    },
                    {
                        "type": "heading",
                        "text": "1. සරණගමනං{1}",
                        "level": 1
                    },
                    {
                        "type": "paragraph",
                        "text": "බුද්ධං සරණං ගච්ඡාමි."
                    },
                    {
                        "type": "paragraph",
                        "text": "ධම්මං සරණං ගච්ඡාමි."
                    },
                    {
                        "type": "paragraph",
                        "text": "සඞ්ඝං සරණං ගච්ඡාමි."
                    },
                    {
                        "type": "paragraph",
                        "text": "දුතියම්පි බුද්ධං සරණං ගච්ඡාමි."
                    },
                    {
                        "type": "paragraph",
                        "text": "දුතියම්පි ධම්මං සරණං ගච්ඡාමි."
                    },
                    {
                        "type": "paragraph",
                        "text": "දුතියම්පි සඞ්ඝං සරණං ගච්ඡාමි."
                    },
                    {
                        "type": "paragraph",
                        "text": "තතියම්පි බුද්ධං සරණං ගච්ඡාමි."
                    },
                    {
                        "type": "paragraph",
                        "text": "තතියම්පි ධම්මං සරණං ගච්ඡාමි."
                    },
                    {
                        "type": "paragraph",
                        "text": "තතියම්පි සඞ්ඝං සරණං ගච්ඡාමි."
                    },
                    {
                        "type": "centered",
                        "text": "සරණගමනං.{1}",
                        "level": 1
                    },
                    {
                        "type": "heading",
                        "text": "2. දසසික්ඛාපදං",
                        "level": 1
                    },
                    {
                        "type": "paragraph",
                        "text": "පාණාතිපාතා වෙරමණීසික්ඛාපදං සමාදියාමි."
                    },
                    {
                        "type": "paragraph",
                        "text": "අදින්නාදානා වෙරමණීසික්ඛාපදං සමාදියාමි."
                    },
                    {
                        "type": "paragraph",
                        "text": "අබ්රහ්මචරියා වෙරමණීසික්ඛාපදං සමාදියාමි."
                    },
                    {
                        "type": "paragraph",
                        "text": "මුසාවාදා වෙරමණීසික්ඛාපදං සමාදියාමි."
                    },
                    {
                        "type": "paragraph",
                        "text": "සුරාමෙරයමජ්ජපමාදට්ඨානා වෙරමණීසික්ඛාපදං සමාදියාමි ."
                    },
                    {
                        "type": "paragraph",
                        "text": "විකාලභොජනා වෙරමණීසික්ඛාපදං සමාදියාමි."
                    },
                    {
                        "type": "paragraph",
                        "text": "නච්චගීතවාදිතවිසූකදස්සනා වෙරමණීසික්ඛාපදං සමාදියාමි."
                    },
                    {
                        "type": "paragraph",
                        "text": "මාලාගන්ධවිලෙපනධාරණමණ්ඩනවිභූසනට්ඨානා වෙරමණීසික්ඛාපදං සමාදියාමි."
                    },
                    {
                        "type": "paragraph",
                        "text": "උච්චාසයනමහාසයනා වෙරමණීසික්ඛාපදං සමාදියාමි."
                    },
                    {
                        "type": "paragraph",
                        "text": "ජාතරූපරජතපටිග්ගහණා වෙරමණීසික්ඛාපදං සමාදියාමි."
                    },
                    {
                        "type": "centered",
                        "text": "දසසික්ඛාපදං.",
                        "level": 1
                    }
                ],
                "footnotes": [
                    {
                        "type": "footnote",
                        "text": "1. සරණත්තයං. මජසං."
                    }
                ]
            },
            "sinh": {
                "entries": [
                    {
                        "text": "සූත්‍ර පිටකයෙහි",
                        "type": "centered",
                        "level": 3
                    },
                    {
                        "type": "centered",
                        "text": "කුදුගත් සඟිය",
                        "level": 5
                    },
                    {
                        "type": "centered",
                        "text": "(ප්‍රථම ග්‍රන්‍ථය)",
                        "level": 3
                    },
                    {
                        "type": "heading",
                        "text": "ඛුද්දකපාඨ පෙළ",
                        "level": 4
                    },
                    {
                        "type": "centered",
                        "text": "ඒ භාග්‍යවත් අර්‍හත් සම්මාසම්බුදුරජාණන් වහන්සේට නමස්කාර වේවා.",
                        "level": 1
                    },
                    {
                        "type": "heading",
                        "text": "1. ශරණගමනය",
                        "level": 1
                    },
                    {
                        "type": "paragraph",
                        "text": "බුදුරජුන් සරණයෙමි (පිහිට යැ යි දැන ගණිමි.)"
                    },
                    {
                        "text": "දහම් සරණ යෙමි (පිහිට යැ යි දැන ගණිමි.)",
                        "type": "paragraph"
                    },
                    {
                        "text": "සඟ සරණ යෙමි (පිහිට යැ යි දැන ගණිමි.)",
                        "type": "paragraph"
                    },
                    {
                        "text": "දෙවනු ද බුදුරජුන් සරණ යෙමි.",
                        "type": "paragraph"
                    },
                    {
                        "text": "දෙවනු ද දහම් සරණ යෙමි.",
                        "type": "paragraph"
                    },
                    {
                        "text": "දෙවනු ද සඟ සරණ යෙමි.",
                        "type": "paragraph"
                    },
                    {
                        "text": "තෙවනු ද බුදුරජුන් සරණ යෙමි.",
                        "type": "paragraph"
                    },
                    {
                        "text": "තෙවනු ද දහම් සරණ යෙමි.",
                        "type": "paragraph"
                    },
                    {
                        "text": "තෙවනු ද සඟ සරණ යෙමි.",
                        "type": "paragraph"
                    },
                    {
                        "text": "ශරණගමනය යි.",
                        "type": "centered",
                        "level": 1
                    },
                    {
                        "text": "2. දසසිකපද",
                        "type": "heading",
                        "level": 1
                    },
                    {
                        "text": "පණිවායෙන් වැළැක්ම වූ සිකපදය මනා කොට ගණිමි.",
                        "type": "paragraph"
                    },
                    {
                        "text": "අයිනා දනින් වැළැක්ම වූ සිකපදය මනා කොට ගණිමි.",
                        "type": "paragraph"
                    },
                    {
                        "text": "මෙවුන්දමින් වැළැක්ම වූ සිකපදය මනා කොට ගණිමි.\nඅබ්‍රම්සරින් වැළැක්ම වූ සිකපදය මනා කොට ගණිමි.",
                        "type": "paragraph"
                    },
                    {
                        "text": "මුස වායෙන් වැළැක්ම වූ සිකපදය මනා කොට ගණිමි.",
                        "type": "paragraph"
                    },
                    {
                        "text": "මදයටත් ප්‍රමාදයටත් හේතු වූ රහමෙර පීමෙන් වැළැක්ම වූ සිකපදය මනා කොට ගණිමි.",
                        "type": "paragraph"
                    },
                    {
                        "text": "විකල් බොජුනෙන් වැළැක්ම වූ සිකපදය මනා කොට ගණිමි.",
                        "type": "paragraph"
                    },
                    {
                        "text": "නටනු ගයනු වයනු විසුළුදස්නෙන් වැළැක්ම වූ සිකපදය මනා කොට ගණිමි.",
                        "type": "paragraph"
                    },
                    {
                        "text": "අඩු තැන් පිරවීමටත් සැරසීමටත් කරුණු වූ මල් ගඳ විලෙවුන් දැරීමෙන් වැළැක්ම වූ සිකපදය මනා කොට ගණිමි.",
                        "type": "paragraph"
                    },
                    {
                        "text": "උසසුන්මහස්නෙන් වැළැක්ම වූ සිකපදය මනා කොට ගණිමි.",
                        "type": "paragraph"
                    },
                    {
                        "text": "රන් රිදී මසු කහවණු පිළිගැන්මෙන් වැළැක්ම වූ සිකපදය මනා කොට ගණිමි.",
                        "type": "paragraph"
                    },
                    {
                        "text": "දසසිකපද යි.",
                        "type": "centered",
                        "level": 1
                    }
                ],
                "footnotes": []
            }
        },
        {
            "pageNum": 4,
            "pali": {
                "entries": [
                    {
                        "type": "heading",
                        "text": "3. ද්වත්තිංසාකාරං",
                        "level": 1
                    },
                    {
                        "type": "paragraph",
                        "text": "අත්ථි ඉමස්මිං කායෙ කෙසා ලොමා නඛා දන්තා තචො මංසං නහාරූ අට්ඨි අට්ඨිමිඤ්ජං{1} වක්කං හදයං යකනං කිලොමකං පිහකං පප්ඵාසං අන්තං අන්තගුණං උදරියං කරීසං පිත්තං සෙම්හං පුබ්බො ලොහිතං සෙදො මෙදො අස්සු වසා ඛෙලො සිඞ්ඝානිකා ලසිකා [මුත්තං මත්ථකෙ මත්ථලුඞ්ගන්ති."
                    },
                    {
                        "type": "centered",
                        "text": "ද්වත්තිංසාකාරං.",
                        "level": 1
                    },
                    {
                        "type": "heading",
                        "text": "4. කුමාරපඤ්හා",
                        "level": 1
                    },
                    {
                        "type": "paragraph",
                        "text": "එකං නාම{2} කිං? සබ්බෙ සත්තා ආහාරට්ඨිතිකා."
                    },
                    {
                        "type": "paragraph",
                        "text": "ද්වෙ නාම කිං? නාමඤ්ච රූපඤ්ච."
                    },
                    {
                        "type": "paragraph",
                        "text": "තීණි නාම කිං? තිස්සො වෙදනා."
                    },
                    {
                        "type": "paragraph",
                        "text": "චත්තාරි නාම කිං? චත්තාරි අරියසච්චානි."
                    },
                    {
                        "type": "paragraph",
                        "text": "පඤ්ච නාම කිං? පඤ්චුපාදානක්ඛන්ධා."
                    },
                    {
                        "type": "paragraph",
                        "text": "ඡ නාම කිං? ඡ අජ්ඣත්තිකානි ආයතනානි."
                    },
                    {
                        "type": "paragraph",
                        "text": "සත්ත නාම කිං? සත්ත බොජ්ඣඞ්ගා."
                    },
                    {
                        "type": "paragraph",
                        "text": "අට්ඨ නාම කිං? අරියො අට්ඨඞ්ගිකො මග්ගො."
                    },
                    {
                        "type": "paragraph",
                        "text": "නව නාම කිං? නව සත්තාවාසා."
                    },
                    {
                        "type": "paragraph",
                        "text": "දස නාම කිං? දසහඞ්ගෙහි සමන්නාගතො අරහා’ති වුච්චතීති."
                    },
                    {
                        "type": "centered",
                        "text": "කුමාරපඤ්හා.",
                        "level": 1
                    }
                ],
                "footnotes": [
                    {
                        "type": "footnote",
                        "text": "1. අට්ඨිමිඤ්ජා -"
                    },
                    {
                        "type": "footnote",
                        "text": "2. එක කාම කිං."
                    }
                ]
            },
            "sinh": {
                "entries": [
                    {
                        "text": "3. දෙතිස් ආකාරය",
                        "type": "heading",
                        "level": 1
                    },
                    {
                        "text": "මේ සිරුරෙහි කෙස් ය, ලොම් ය, නිය ය, දත් ය, සම ය, මස් ය, නහර ය, ඇට ය, ඇටමිඳුලු ය, වකුගඩු ය, හදවත ය, අක්මාව ය, දලබුව ය, බඩදිව ය, පපුමස ය, අතුනුවැටිය ය, අතුනුබහන් ය, උදරිය (උදරයෙහි වූ නො පැසුණු අහර පැන් ආදිය) ය, වසුරු ය, පිත ය, සෙම ය, පූයා ය, ලේ ය, ඩහදිය ය, හැසුනු (මිදි ගිය) තෙල් ය, කඳුළු ය, වුරුණු (දිය ව ගිය) තෙල් ය, කෙල ය, මුකුණු (සොටු) ය, සඳමිඳුලු ය, මුත්‍ර ය, හිස් කබල් තුළ පිහිටි මිඳුලු රැස ය යන දෙතිස් කුණුප කොටස් කෙනෙක් ඇත්තාහ.",
                        "type": "paragraph"
                    },
                    {
                        "text": "දෙතිස් ආකාර යි.",
                        "type": "centered",
                        "level": 1
                    },
                    {
                        "text": "4. කුමාරප්‍රශ්න",
                        "type": "heading",
                        "level": 1
                    },
                    {
                        "text": "එක නම් කිම? සියලු සත්හු අහරින් සිටින්නෝ ය.",
                        "type": "paragraph"
                    },
                    {
                        "text": "දෙක නම් කිම? නම් රූ දෙක ය.",
                        "type": "paragraph"
                    },
                    {
                        "text": "තුන නම් කිම? (සුඛ දුඃඛ උපේක්‍ෂා යන) තුන් වේදනාවෝ ය.",
                        "type": "paragraph"
                    },
                    {
                        "text": "සතර නම් කිම? (දුඃඛ සමුදය නිරෝධ මාර්‍ග යන) සතර ආර්‍ය සත්‍යයෝ ය.",
                        "type": "paragraph"
                    },
                    {
                        "text": "පස නම් කිම? (රූප වේදනා සංඥා සංස්කාර විඥාන යන) උපාදානස්කන්‍ධ පස ය.",
                        "type": "paragraph"
                    },
                    {
                        "text": "සය නම් කිම? (චක්ඛු සෝත ඝාන ජිව්හා කාය මන යන) තමා කෙරෙහි වූ ආයතන සය ය.",
                        "type": "paragraph"
                    },
                    {
                        "text": "සත නම් කිම? (සති ධම්මවිචය පීති විරිය පස්සද්ධි සමාධි උපෙක්ඛා යන) බෝධ්‍යඞ්ග සත ය.",
                        "type": "paragraph"
                    },
                    {
                        "text": "අට නම් කිම? (සම්මාදිට්ඨි සම්මාසඞ්කප්ප සම්මාවාචා සම්මාකම්මන්ත සම්මාආජීව සම්මාවායාම සම්මාසති සම්මාසාමාධි යන) ආර්‍ය අෂ්ටාඞ්ගික මාර්‍ගය ය.",
                        "type": "paragraph"
                    },
                    {
                        "text": "නවය නම් කිම? (නානත්තකාය නානත්තසඤ්ඤි ය, නානත්තකාය ඒකත්තසඤ්ඤි ය, එකත්තකාය නානත්තසඤ්ඤි ය, එකත්තකාය ඒකත්තසඤ්ඤි ය, අසඤ්ඤි ය, අකාසානඤ්චායතනූපග ය, විඤ්ඤාණඤ්චායතනූපග ය, ආකිඤ්චඤ්ඤායතනූපග ය, නේවසඤ්ඤානාසඤ්ඤායතනූපග ය යන) සත්ත්‍වාවාස නවය ය.",
                        "type": "paragraph"
                    },
                    {
                        "text": "දශය නම් කිම? (අසේඛ සම්මාදිට්ඨි ය, අසේඛ සම්මාසඞ්කප්ප ය, අසේඛ සම්මාවාචා, අසේඛ සම්මාකම්මන්ත ය, අසේඛ සම්මාආජීව ය, අසේඛ සම්මාවායාම ය, අසේඛ සම්මාසති ය, අසේඛ සම්මාසාමාධි ය, අසේඛ සම්මාඤාණ ය, අසේඛ සම්මාවිමුත්තිය යන) අඞ්ග දශයෙන් යුත් වූයේ රහත් තෙමේ ය යි කියනු ලැබේ.",
                        "type": "paragraph"
                    },
                    {
                        "text": "කුමාරප්‍රශ්න යි.",
                        "type": "centered",
                        "level": 1
                    }
                ],
                "footnotes": []
            }
        },
        {
            "pageNum": 6,
            "pali": {
                "entries": [
                    {
                        "type": "heading",
                        "text": "5. මඞ්ගලසුත්තං",
                        "level": 1
                    },
                    {
                        "type": "paragraph",
                        "text": "**එ**වං මෙ සුත: එකං සමයං භගවා **සාවත්ථියං** විහරති **ජෙතවනෙ අනාථපිණ්ඩිකස්ස** ආරාමෙ. අථ ඛො අඤ්ඤතරා දෙවතා අභික්කන්තාය රත්තියා අභික්කන්තවණ්ණා කෙවලකප්පං ජෙතවනං ඔභාසෙත්වා යෙන භගවා තෙනුපසඞ්කමි. උපසඞ්කමිත්වා භගවන්තං අභිවාදෙත්වා එකමන්තං අට්ඨාසි. එකමන්තං ඨිතා ඛො සා දෙවතා භගවන්තං ගාථාය අජ්ඣභාසි."
                    },
                    {
                        "type": "gatha",
                        "text": "1. බහූ දෙවා මනුස්සා ච මඞ්ගලානි අචින්තයුං,\nආකඞ්ඛමානා සොත්ථානං බ්රූහි මඞ්ගලමුත්තමං.",
                        "level": 1
                    },
                    {
                        "type": "paragraph",
                        "text": ""
                    },
                    {
                        "type": "gatha",
                        "text": "2. අසෙවනා ච බාලාන පණ්ඩිතානං ච සෙවනා,\nපූජා ච පූජනීයානං එතං මඞ්ගලමුත්තමං.",
                        "level": 1
                    },
                    {
                        "type": "gatha",
                        "text": "3. පතිරූපදෙසවාසො ච පුබ්බෙ ච කතපුඤ්ඤතා\nඅත්තසම්මාපණිධි ච එතං මඞ්ගලමුත්තමං.",
                        "level": 1
                    },
                    {
                        "type": "gatha",
                        "text": "4. බාහුසච්චඤ්ච සිප්පඤ්ච විනයො ච සුසික්ඛිතො\nසුභාසිතා ච යා වාචා එතං මඞ්ගලමුත්තමං.",
                        "level": 1
                    },
                    {
                        "type": "gatha",
                        "text": "5. මාතාපිතුඋපට්ඨානං පුත්තදාරස්ස සඞ්ගහො\nඅනාකුලා ච කම්මන්තා එතං මඞ්ගලමුත්තමං.",
                        "level": 1
                    },
                    {
                        "type": "gatha",
                        "text": "6. දානං ච ධම්මචරියා ච ඤාතකානඤ්ච සඞ්ගහො\nඅනවජ්ජානි කම්මානි එතං මඞ්ගලමුත්තමං.",
                        "level": 1
                    },
                    {
                        "type": "gatha",
                        "text": "7. ආරති විරති පාපා මජ්ජපානා ච සඤ්ඤමො\nඅප්පමාදො ච ධම්මෙසූ එතං මඞ්ගලමුත්තමං.",
                        "level": 1
                    },
                    {
                        "type": "gatha",
                        "text": "8. ගාරවො ච නිවාතො ච සන්තුට්ඨි ච කතඤ්ඤුතා\nකාලෙන ධම්මසවණං එතං මඞ්ගලමුත්තමං.",
                        "level": 1
                    },
                    {
                        "type": "gatha",
                        "text": "9. ඛන්තී ච සොවචස්සතා සමණානඤ්ච දස්සනං\nකාලෙන ධම්මසාකච්ඡා එතං මඞ්ගලමුත්තමං.",
                        "level": 1
                    },
                    {
                        "type": "gatha",
                        "text": "10. තපො ච බ්රහ්මචරියඤ්ච අරියසච්චානදස්සනං\nනිබ්බාණසච්ඡිකිරියා ච එතං මඞ්ගලමුත්තමං.",
                        "level": 1
                    }
                ],
                "footnotes": []
            },
            "sinh": {
                "entries": [
                    {
                        "text": "5. මඞ්ගල සූත්‍රය",
                        "type": "heading",
                        "level": 1
                    },
                    {
                        "text": "මා විසින් මෙසේ අසන ලදී: එක් සමයෙක භාග්‍යවතුන් වහන්සේ සැවැත්නුවර නිසා ජේතවන නම් වූ අනේපිඬු මහ සිටුහුගේ අරම්හි වැඩ වසන සේක. එකල්හි එක්තරා දෙවියෙක් රෑ (පෙර යම්) ඉක්ම ගිය කල්හි විශිෂ්ට ශරීරශෝභා ඇත්තේ සියලු ජේතවනය (ස්වකීය) ශරීරශොභායෙන් බබුළුවා භාග්‍යවතුන් වහන්සේ යම් තැනෙක ද එ තැනට එළැඹියේ ය. එළැඹ භාග්‍යවතුන් වහන්සේ වැඳ එකත් පසෙක සිටියේ ය. එකත්පසෙක සිටි ඒ දෙවි තෙම භාග්‍යවතුන්වහන්සේට ගාථායෙන් (මෙසේ) කීයේ ය:",
                        "type": "paragraph"
                    },
                    {
                        "text": "1. ස්වස්ථභාවය කැමැති බොහෝ දෙවියෝ ද මිනිස්සු ද (දෙලෝ වැඩ සලසන) මඞ්ගල කාරණයන් සිතූහ. වැඩ සලසන උතුම් මඟුල් (මඞ්ගල කාරණ) වදාළ මැනැවි.",
                        "type": "paragraph"
                    },
                    {
                        "text": "[බුදුරජුහු වදාළහ:]",
                        "type": "paragraph"
                    },
                    {
                        "text": "2. බාලයන් ඇසුරු නොකිරීම ද මඟුලෙකි. පණ්ඩිතයන් ඇසුරු කිරීම ද මඟුලෙකි. පිදිය යුත්තන් පිදීම ද මඟුලෙකි. මේ (එක එකෙක්) උතුම් මඟුල් ය (මඞ්ගල කාරණය).",
                        "type": "paragraph"
                    },
                    {
                        "text": "3. සුදුසු පෙදෙසෙහි විසීම ද, පෙරකළ පින් ඇති බව ද, සිය අත්බව (ශීලාදි) මනා දහම්හි පිහිටුවීම ද යන මේ (එක එකෙක්) උතුම් මඟුල් ය.",
                        "type": "paragraph"
                    },
                    {
                        "text": "4. බොහෝ ඇසූ පිරූ තැන් ඇති බව ද, (ගිහි පැවිදි) සිප්හි අත් හුරු බව ද, මොනොවට හික්මුනු කා විසි මුනි තුන් දොර ඇති බව ද, මොනොවට කියන ලද වචනය ද (මුසාවා ආදියෙන් වැළකි වචනය ද) යන මේ (එක එකෙක්) උතුම් මඟුල් ය.",
                        "type": "paragraph"
                    },
                    {
                        "text": "5. මවුට උවටන ද, පියාට උවටන ද, අඹුදරුවනට සඞ්ග්‍රහ ද, (ගොවිතැන් ආදි) නිරවුල් කර්‍මාන්තය ද යන මේ (එක එකෙක්) උතුම් මඟුල් ය.",
                        "type": "paragraph"
                    },
                    {
                        "text": "6. දානය ද, දස කුසල්දහම්හි හැසිරීම ද, නෑයන්ට සංග්‍රහ ද, පෙහෙවස් විසීම් ආදි නිවැරැදි කර්‍ම ද යන මේ (එක එකෙක්) උතුම් මඟුල් ය.",
                        "type": "paragraph"
                    },
                    {
                        "text": "7. මානසික අකුශලයෙන් වැළැක්ම ද, කායික වාචසික අකුශලයෙන් වැළැක්ම ද, මත්පැනෙන් වැළැක්ම ද, කුසල්දහම් වැඩීමෙහි නොපමා බව ද යන මේ (එක එකෙක්) උතුම් මඟුල් ය.",
                        "type": "paragraph"
                    },
                    {
                        "text": "8. ගරු කටයුත්තනට ගරු කිරීම ද, මන් නැති බව ද (නිහතමාන බව) ද, ලද දැයින් සතුටු වන බව ද, කෙළෙහි ගුණ දන්නා බව ද, සුදුසු කල්හි බණ ඇසීම ද යන මේ (එක එකෙක්) උතුම් මඟුල් ය.",
                        "type": "paragraph"
                    },
                    {
                        "text": "9. ඉවැසීම ද, සුවච බව ද, ශ්‍රමණයන් දැක්ම ද, සුදුසු කල්හි ධර්‍ම සාකච්ඡාව ද යන මේ (එක එකෙක්) උතුම් මඟුල් ය.",
                        "type": "paragraph"
                    },
                    {
                        "text": "10. තපස ද (ඉන්‍ද්‍රියසංවර හා වීර්‍ය්‍යය ද,) බඹසර ද (මෙවුන්දමින් වැළැක්ම, මහණදම, සසුන් බඹසර යන තුන් බඹසර ද), චතුරාර්‍ය්‍යසත්‍යයන් දැකීමද (මාර්‍ගදර්‍ශනය ද), නිවන්පසක් කිරීම ද යන මේ (එක එකෙක්) උතුම් මඟුල් ය.",
                        "type": "paragraph"
                    }
                ],
                "footnotes": []
            }
        },
        {
            "pageNum": 8,
            "pali": {
                "entries": [
                    {
                        "type": "gatha",
                        "text": "11. පුට්ඨස්ස ලොකධම්මෙහි චිත්තං යස්ස න කම්පති\nඅසොකං විරජං ඛෙමං එතං මඞ්ගලමුත්තමං.",
                        "level": 1
                    },
                    {
                        "type": "gatha",
                        "text": "12. එතාදිසානි කත්වාන සබ්බත්ථ මපරාජිතා\nසබ්බත්ථ සොත්ථිං ගච්ඡන්ති තං තෙසං මඞ්ගලමුත්තමන්ති.",
                        "level": 1
                    },
                    {
                        "type": "centered",
                        "text": "මඞ්ගලසුත්තං.",
                        "level": 1
                    },
                    {
                        "type": "heading",
                        "text": "6. රතනසුත්තං",
                        "level": 1
                    },
                    {
                        "type": "gatha",
                        "text": "1. යානීධ භූතානි සමාගතානි භුම්මානි වා යානි ව අන්තළික්ඛෙ{1}\nසබ්බෙව භූතා සුමනා භවන්තු අථො’පි සක්කච්ච සුණන්තු භාසිතං.",
                        "level": 1
                    },
                    {
                        "type": "gatha",
                        "text": "2. තස්මා හි භූතා නිසාමෙථ සබ්බෙ, මෙත්තං කරොථ මානුසියා පජාය.\nදිවා ච රත්තො ච හරන්ති යෙ බලිං තස්මා හි නෙ රක්ඛථ අප්පමත්තා.",
                        "level": 1
                    },
                    {
                        "type": "gatha",
                        "text": "3. යං කිඤ්චි විත්තං ඉධ වා හුරං වා{2}\nසග්ගෙසු වා යං රතනං පණීතං\nන නො සමං අත්ථි තථාගතෙන\nඉදම්පි බුද්ධෙ රතනං පණීතං\nඑතෙන සච්චෙන සුවත්ථි හොතු.",
                        "level": 1
                    },
                    {
                        "type": "gatha",
                        "text": "4. ඛයං විරාගං අමතං පණීතං\nයදජ්ඣගා සක්යමුනී සමාහිතො\nන තෙන ධම්මෙන සමත්ථි කිඤ්චි\nඉදම්පි ධම්මෙ රතනං පණීතං\nඑතෙන සච්චෙන සුවත්ථි හොතු.",
                        "level": 1
                    },
                    {
                        "type": "gatha",
                        "text": "5. යම්බුද්ධසෙට්ඨො පරිවණ්ණයී සුචිං{3}\nසමාධිමානන්තරිකඤ්ඤමාහු\nසමාධිනා තෙන සමො න විජ්ජති\nඉදම්පි ධම්මෙ රතනං පණීතං\nඑතෙන සච්චෙන සුවත්ථි හොතු",
                        "level": 1
                    }
                ],
                "footnotes": [
                    {
                        "type": "footnote",
                        "text": "1. යානීහ භූතානි සමාගතානි\nභූම්යානි වා යානි වා අන්තරීක්ෂෙ\nසර්වාණි වා ආත්තමනාති භූත්වා\nශ්රූණ්වන්තු ස්වසත්යයනං ජිනෙන භාෂිතම් (මහාවස්තු)"
                    },
                    {
                        "type": "footnote",
                        "text": "2. ඉමස්මිං ලොකෙ පරස්මිං වා පුන:\nසවේෂු වා යදාතනං ප්රණිතම්\nන තත්සමං අසති තථාගතෙන\nදෙවාතිදෙවෙන නරොත්තමෙන\nඉදම්පි බුද්ධෙ රතනං පණීතං\nඑතෙන සත්යෙන සුස්වස්ති හොතු (මහාවස්තු)"
                    },
                    {
                        "type": "footnote",
                        "text": "3. යම්බුද්ධශ්රෙෂ්ඨො පරිවර්ණයෙත් ශුචිං\nයමාහු ආනන්තරිකං සමාධිං\nසමාධිනො තස්ය සමො න විද්යාතෙ\nඉදම්පි ධමේ රතනං ප්රණීතං\nඑතෙන සත්යෙන සුස්වස්ති හොතු. (මහාවස්තු)"
                    }
                ]
            },
            "sinh": {
                "entries": [
                    {
                        "text": "11. අට ලෝදහමින් පහස්නා ලද (ස්පර්‍ශකරන ලද, මඬනා ලද) යමක්හුගේ සිත නො සැලේ ද, ශෝක රහිත ද, රාගාදි රජස් රහිත ද, කාමයෝගාදීන්ගෙන් නිරුපද්‍රත ද, එ බඳු වූ රහත්හුගේ සිතෙහි වූ ඒ නොසැලෙන බව ආදි එක එකෙක් උතුම් මඟුල් ය.",
                        "type": "paragraph"
                    },
                    {
                        "text": "12. යම් කෙනෙක් මෙබඳු වූ බාලයන් ඇසුරු නොකිරීම් ආදි මඞ්ගල කාරණයන් කිරීමෙන් හැම තන්හි (දෙලෙව්හි ම) නොපැරැදුනෝ ව සියලු ඉරියව්වෙහි ස්වස්ථ ව වෙසෙත් ද, එය (ඒ බාලයන් ඇසුරු නොකිරීම් ආදිය) ඔවුන්ට උතුම් මඟුල් ය.",
                        "type": "paragraph"
                    },
                    {
                        "text": "මඞ්ගල සූත්‍රය යි.",
                        "type": "centered",
                        "level": 1
                    },
                    {
                        "text": "6. රතන සූත්‍රය",
                        "type": "heading",
                        "level": 1
                    },
                    {
                        "text": "1. පොළොවෙහි වූ හෝ අහසෙහි වූ හෝ යම් අමනුෂ්‍ය කෙනෙක් මෙහි රැස් වූහු ද, ඒ සියලු අමනුෂ්‍යයෝ ම සතුටු සිතැත්තෝ වෙත්වා. තව ද මගේ වචනය සකසා අසත්වා.",
                        "type": "paragraph"
                    },
                    {
                        "text": "2. භූතයෙනි, ඒ බැවින් සියලු තෙපි (මගේ වචනය) අසවු. මනුෂ්‍ය ප්‍රජාවට මෛත්‍රිය කරවු. යම් කෙනෙක් දහවල් ද රෑ ද පුද පඬුරු එළවත් ද, එහෙයින් නො පමා ව ම ඔවුන් රකිවු.",
                        "type": "paragraph"
                    },
                    {
                        "text": "3. මේ මිනිස්ලොව හෝ නාලෝ ආදි අන් ලොවෙක හෝ යම් ධනයෙක් වේ ද දෙව්ලෝහි හෝ මහඟු රුවනෙක් වේ ද (ඔවුන් අතුරෙහි) තථාගතයන් හා සදෘශයෙක් නැත් ම ය. මෙ කරුණින් ද බුදුරජුහු උතුම් රුවනෙකි (නොහොත් මෙය බුදුරජුන් ගේ රත්නභාවය යි.) මේ සත්‍ය බලයෙන් සෙත් වේවා.",
                        "type": "paragraph"
                    },
                    {
                        "text": "4. ශාක්‍යමුනි තෙම (ආර්‍ය්‍යමාර්‍ග සමාධියෙන්) එකඟ වූ සිත් ඇත්තේ, කෙලෙස් නැසීමට නිමිති වූ, රාගයෙන් වෙන් වීමට නිමිති වූ, මරණයක් නැති, උතුම් වූ (මහත් වූ) යම් නිවනක් පසක් කළේ ද, ඒ දහම හා සම වූ කිසිවෙක් නැත්තේ ය. මෙ කරුණින් ද නිවන්දහම උතුම් රුවනෙකි. මේ සත්‍යවචනානුභාවයෙන් සෙත් වේවා.",
                        "type": "paragraph"
                    },
                    {
                        "text": "5. බුද්ධශ්‍රේෂ්ඨ තෙම අත්‍යන්තපරිශුද්ධ වූ යම් මාර්‍ගසමාධියක් වර්‍ණනා කළේ ද, බුද්ධාදීහු ආනන්තරික (අනතුරුව ම පල දෙන) සමාධිය යැ යී යමකට කියත් ද, ඒ සමාධිය හා සදෘශ (අන් සමාධි) යෙක් නැත. මේ කරුණින් ද ආර්‍ය්‍යමාර්‍ගධර්‍මය උතුම් රුවනෙකි. මේ සත්‍යබලයෙන් සෙත් වේවා.",
                        "type": "paragraph"
                    }
                ],
                "footnotes": []
            }
        },
        {
            "pageNum": 10,
            "pali": {
                "entries": [
                    {
                        "type": "gatha",
                        "text": "6. යෙ පුග්ගලා අට්ඨසතම්පසත්ථා\nචත්තාරි එතානි යුගානි හොන්ති\nතෙ දක්ඛිණෙය්යා සුගතස්ස සාවකා\nඑතෙසු දින්නානි මහප්ඵලානි\nඉදම්පි සඞ්ඝෙ රතනං පණීතං\nඑතෙන සච්චෙන සුවත්ථි හොතු.{1}",
                        "level": 1
                    },
                    {
                        "type": "gatha",
                        "text": "7. යෙ සුප්පයුත්තා මනසා දළ්හෙන\nනික්කාමිනො ගොතමසාසනම්හි\nතෙ පත්තිපත්තා අමතං විගය්හ\nලද්ධා මුධා නිබ්බුතිං භුඤ්ජමානා.\nඉදම්පි සඞ්ඝෙ රතනං පණීතං\nඑතෙන සච්චෙන සුවත්ථි හොතු.{2}",
                        "level": 1
                    },
                    {
                        "type": "gatha",
                        "text": "8. යථින්දඛීලො පඨවිංසිතො සියා\nචතුබ්භි වාතෙභි අසම්පකම්පියො\nතථූපමං සප්පුරිසං වදාමි\nයො අරියසච්චානි අවෙච්ච පස්සති.\nඉදම්පි සඞ්ඝෙ රතනං පණීතං\nඑතෙන සච්චෙන සුවත්ථි හොතු.{3}",
                        "level": 1
                    },
                    {
                        "type": "gatha",
                        "text": "9. යෙ අරියසච්චානි විභාවයන්ති\nගම්භීරපඤ්ඤෙන සුදෙසිතානි\nකිඤ්චාපි තෙ හොන්ති භූසප්පමත්තා\nන තෙ භවං අට්ඨමං ආදියන්ති\nඉදම්පි සඞ්ඝෙ රතනං පණීතං\nඑතෙන සච්චෙන සුවත්ථි හොතු.{4}",
                        "level": 1
                    }
                ],
                "footnotes": [
                    {
                        "type": "footnote",
                        "text": "1. යෙ පුද්ගලා අෂ්ට සදා ප්රශස්තා\nචත්වාරි එතානි යුගානි හොන්ති\nතෙ දක්ෂීණෙයා සුගතෙන උක්තා\nඑතෙෂු දින්නානි මහත්ඵලානි\nඉදම්පි සඞ්ඝෙ රත්නං ප්රණිතං\nඑතෙන ............... (මහාවස්තු)"
                    },
                    {
                        "type": "footnote",
                        "text": "2. යෙ යුක්තයොගී මනසා සුඡන්දසා\nණෛෂකාමයිනො ගොතමශාසනස්මින්\nතෙ ප්රාප්තිප්රාප්තා අමාතං ‘වගාහ්ය\nවිමුක්තවිත්තා නිර්වෘතිං භුංජමානාඃ\nඉදම්පි සංඝෙ ................ (මහාවස්තු)"
                    },
                    {
                        "type": "footnote",
                        "text": "3. යථෙන්ද්රකීලො පෘථිවිශ්රිතො ස්යා-\nචවතුර්හි වාතෙහි අසම්ප්රකම්පී\nතථොපමං සත්පුරුෂං වදෙමි\nයො ආර්යසත්යානි සුදෙශිතානි\nගම්භීරඅටානි අවෙත්ය පශ්යති\nඉදම්පි.................... (මහාවස්තු)"
                    },
                    {
                        "type": "footnote",
                        "text": "4. යෙ ආර්යසත්යානි විභාවයන්ති\nගම්භීරප්රඥෙන සුදෙශිතානි\nකිඤ්චාපි තෙ හොන්ති භාශං ප්රමත්තා\nන තෙ භවානෂ්ට උපාදියන්ති\nඉදම්පි සඞ්ඝෙ.............. (මහාවස්තු)"
                    }
                ]
            },
            "sinh": {
                "entries": [
                    {
                        "text": "6. සත්පුරුෂයන් විසින් පසස්නා ලද යම් ආර්‍ය පුද්ගලයෝ අට දෙනෙක් වෙත් ද නොහොත් ප්‍රශස්ත වූ යම් අටෝරාසියක් අරී පුගුලෝ වෙත් ද, මොහු හැම දෙන සතර යුග කෙනෙක් වෙති. සුගත බුදුරජුන්ගේ සවු වූ ඔහු තුමූ දක්‍ෂිණාවට (කර්‍මය ද කර්‍මවිපාකය ද අදහා දෙන දානය පිළිගැන්මට) සුදුස්සෝ වෙති. මේ බුදුසව්වන් කෙරෙහි දෙන ලද දානයෝ මහත් පල ඇත්තෝ වෙත්. මේ කරුණින් ද බුද්ධශ්‍රාවක සඞ්ඝ තෙමේ උතුම් රුවනෙකි. මේ සත්‍ය බලයෙන් සෙත් වේවා.",
                        "type": "paragraph"
                    },
                    {
                        "text": "7. ගොයුම්බුදුරජුන් ගේ සස්නෙහි වූ, සුවිශුද්ධ කායවාක්කර්‍ම සංඛාත ශීලස්කන්‍ධයෙන් යුක්ත වූ, ස්ථිර සිතින් (හෙවත් සමාධිගත සිතින්) යුක්ත වූ, ප්‍රඥාව කරණ කොට ගෙණ සියලු කෙලෙසුන්ගෙන් නික්මුනා වූ යම් පුද්ගල කෙනෙක් වෙත ද, ඔහු තුමූ (අරමුණු කිරීම් වශයෙන්) නිවනට බැස ගෙණ නො මිලේ ම රහත්පල සමවත ලැබ ගෙණ එය විඳින්නාහු වෙති. මේ කරුණින් ද ආර්‍ය්‍යසඞ්ඝයා උතුම් රුවනෙකි. මේ සත්‍ය බලයෙන් සෙත් වේවා.",
                        "type": "paragraph"
                    },
                    {
                        "text": "8. යම්සේ පොළොව තුළ වැද ගෙණ සිටි ඉන්‍ද්‍රකීලය තෙමෙ සිවු දිගින් හමන සුළඟින් සෙලවිය හැකි නො වේ ද. ආර්‍ය්‍යසත්‍යයන් ප්‍රඥායෙන් බැස ගෙණ දක්නා සත්පුරුෂයා (හෙවත් සෝවාන් පුඟුලා) එබන්දකු කොට කියමි. මේ කරුණින් ද ආර්‍ය්‍යසඞ්ඝයා උතුම් රුවනෙකි. මේ සත්‍ය බලයෙන් සෙත් වේවා.",
                        "type": "paragraph"
                    },
                    {
                        "text": "9. යම් සෝවාන් පුඟුල් කෙනෙක් ගැඹුරු නුවණැති බුදුරජුන් දෙසූ ආර්‍ය්‍යසත්‍යයන් තමනට ප්‍රකට කෙරෙත් ද, ඔහු (දෙව්සුව සක්විති රජස්‍රව ආදි පමාවට කරුණු වන තැනකට පැමිණ) බෙහෙවින් පමා වූවාහු නමුදු අටවන භවයක් නො ගණිති. මෙ කරුණින් ද ආර්‍ය්‍යසංඝ තෙමේ උතුම් රුවනෙකි. මේ සත්‍යබලයෙන් සෙත් වේවා.",
                        "type": "paragraph"
                    }
                ],
                "footnotes": []
            }
        },
        {
            "pageNum": 12,
            "pali": {
                "entries": [
                    {
                        "type": "gatha",
                        "text": "10. සහාවස්ස දස්සනසම්පදාය\nතයස්සු ධම්මා ජහිතා භවන්ති\nසක්කායදිට්ඨී විචිකිච්ඡිතඤ්ච\nසීලබ්බතං වාපි යදත්ථි කිඤ්චී\nචතූහපායෙහි ච විප්පමුත්තො\nඡ චාභිඨානානි අභබ්බො කාතුං\nඉදම්පි සඞ්ඝෙ රතනං පණීතං\nඑතෙන සච්චෙන සුවත්ථි හොතු.{1}",
                        "level": 1
                    },
                    {
                        "type": "gatha",
                        "text": "11. කිඤ්චාපි සො කම්මං කරොති පාපකං\nකායෙන වාචා උද චෙතසා වා\nඅභබ්බො සො තස්ස පටිච්ඡාදාය\nඅභබ්බතා දිට්ඨපදස්ස වුත්තා.\nඉදම්පි සඞ්ඝෙ රතනං පණීතං\nඑතෙන සච්චෙන සුවත්ථි හොතු.{2}",
                        "level": 1
                    },
                    {
                        "type": "gatha",
                        "text": "12. වනප්පගුම්බෙ යථා ඵුස්සිතග්ගෙ\nගිම්හාණමාසෙ පඨමස්මිං ගිම්හෙ\nතථූපමං ධම්මවරං අදෙසයී\nනිබ්බාණගාමිං පරමං හිතාය.\nඉදම්පි බුද්ධෙ රතනං පණීතං\nඑතෙන සච්චෙන සුවත්ථි හොතු.{3}",
                        "level": 1
                    },
                    {
                        "type": "gatha",
                        "text": "13. වරො වරඤ්ඤූ වරදො වරාහරො\nඅනුත්තරො ධම්මවරං අදෙසයී.\nඉදම්පි බුද්ධෙ රතනං පණීතං\nඑතෙන සච්චෙන සුවත්ථි හොතු.",
                        "level": 1
                    },
                    {
                        "type": "gatha",
                        "text": "14. ඛීණං පුරාණං නවං නත්ථි සම්භවං\nවිරත්තචිත්තා ආයතිකෙ භවස්මිං.\nතෙ ඛීණබීජා අවිරූළ්හිච්ඡන්දා\nනිබ්බන්ති ධීරා යථායම්පදීපො.\nඉදම්පි සඞ්ඝෙ රතනං පණීතං\nඑතෙන සච්චෙන සුවත්ථි හොතු.{4}",
                        "level": 1
                    }
                ],
                "footnotes": [
                    {
                        "type": "footnote",
                        "text": "1. සහෛව යස්ය දර්ශනසම්පදාය.\nත්රයොස්ය ධර්මා ජහිතා භවන්ති\nසත්කායදෘෂ්ටිං විචිකිත්සිතං ච\nශීලව්රතං වාපි යදස්ති කිඤ්වීත්\nඉදම්පි සඞ්ඝෙ............ (මහාවස්තු)"
                    },
                    {
                        "type": "footnote",
                        "text": "2. කිඤ්චාපි ශෛක්ෂො ප්රකරොති පාපං\nකායෙන වාචා අථ චෙතසාපි\nඅභව්යො සො තස්ය නිගුහනාය\nඅභව්යතා දෘෂ්ටිපථෙෂු උක්තා\nඉදම්පි සඞ්ඝෙ............ (මහාවස්තු)"
                    },
                    {
                        "type": "footnote",
                        "text": "3. වනෙ ප්රගූලමා යථ පුෂ්පිතාග්රා\nග්රීස්මාණමාසෙ ප්රථමෙ චෛත්රස්මින්\nවාතෙරිතා තෙ සුරභිං ප්රවාන්ති\nඑවංවිධා ධ්යායිනො බුද්ධපුත්රාඃ\nශීලෙනුපෙතා සුරභිං ප්රවාන්ති\nඉදම්පි සඞ්ඝෙ............. (මහාවස්තු)"
                    },
                    {
                        "type": "footnote",
                        "text": "4. ක්ෂීණං පුරාණං නවො නාස්ති සංචයො\nවිමුක්තවිත්තා ආයතිකෙ භවස්මින් \nතෙ ක්ෂීණබීජා අවිරූඪිධර්මා\nනිර්වාන්ති ධීරා යථා තෛලදීපාඃ\nඉදම්පි සඞ්ඝෙ රතනං ප්රණීතං\nඑතෙන සච්චෙන සුස්වස්ති හොතු (මහාවස්තු)"
                    }
                ]
            },
            "sinh": {
                "entries": [
                    {
                        "text": "10. මේ සෝවාන්හුගේ දර්‍ශනසම්පත්තිය (පළමු වන නිවන් දැක්ම) හෙවත් සෝවාන් මඟ නුවණ පහළ වීම සමග ම සත්කායදෘෂ්ටිය ද, (බුද්ධාදි අට තන්හි) සැකය ද, යම් මිථ්‍යාශීලව්‍රත කෙනෙක් වූහු නම් ඒ සියල්ල ද යන මේ තුන් සංයෝජනයෝ දුරු කරණ ලද්දෝ වෙත්. හෙතෙම සතර අපායයන් කෙරෙන් මිදුනේ ද වේ. (ආනන්තර්‍ය්‍ය කර්‍ම පසත් මිථ්‍යාදෘෂ්ටියත් යන බැරෑරුම් වූ පව් සය කරන්නට ද හේ අභව්‍ය ය (ඔහු විසින් ඒ පව් සය නො කට හැක්ක). මෙ කරුණින් ද ආර්‍ය්‍යසංඝ තෙමේ උතුම් රුවනෙකි. මේ සත්‍යබලයෙන් සෙත් වේවා.",
                        "type": "paragraph"
                    },
                    {
                        "text": "11. ඒ (සෝවාන්) පුද්ගල තෙම (ප්‍රමාදයෙකින්) කයින් හෝ වචනයෙන් හෝ නැත හොත් සිතින් හෝ ප්‍රඥප්තිවද්‍යමාත්‍ර වූ කිසි වරදක් කරන්නේ නුමුදු, හේ එය සඟොවන්නට නො හැක්කේ ය. දක්නා ලද නිර්‍වාණපදය ඇති සෝවාන්හුගේ (වරද සැඟෙවීමෙහි) අභව්‍ය බව (හෙවත් වරද සැඟෙවිය නො හැකි බව) (බුදු රජුන් විසින්) වදාරන ලද්දේ ය. මේ කරුණින් ද ආර්‍ය්‍යසඞ්ඝ තෙමේ උතුම් රුවනෙකි. මේ සත්‍යබලයෙන් සෙත් වේවා.",
                        "type": "paragraph"
                    },
                    {
                        "text": "12. වන ලැහැබ තෙමේ ග්‍රීෂ්මර්තුව සම්බන්‍ධී වූ ප්‍රථම ග්‍රීෂ්ම මාසයෙහි (හෙවත් බක් මස) සුපිපි අක් ඇත්තේ යම්සේ ද, එසේ වූ නිවන්පුර පමුණුවන පර්‍ය්‍යාප්තිධර්‍මරත්නය පරමහිතාඛ්‍ය වූ නිවන් පිණිස (ඒ බුදුරජ තෙම) දෙසී ය. මේ කරුණින් ද බුදුරජ තෙමේ උතුම් රුවනෙකි. මේ සත්‍යබලයෙන් සෙත් වේවා.",
                        "type": "paragraph"
                    },
                    {
                        "text": "13. උතුම් වූ නිවන් දන්නා වූ, උතුම් නිවන දෙන්නා වූ, උතුම් නිවන් මඟ ගෙන හැර පාන්නා වූ, නිරුත්තර වූ බුදුරජ තෙම උතුම් දහමක් දෙසී ය. මේ කරුණින් ද බුදුරජ තෙමේ උතුම් රුවනෙකි. මේ සත්‍යබලයෙන් සෙත් වේවා.",
                        "type": "paragraph"
                    },
                    {
                        "text": "14. යම් කෙනෙකුන්ගේ පුරාතන කර්‍ම (මෙයින් මත්තෙහි ප්‍රතිසන්‍ධියක් දිය නො හැක්කේ) රහත්මඟින් ක්‍ෂීණ වූයේ ද, (කර්‍මක්‍ෂය කළ බැවින් මත්තෙහි විපාක දිය හැකි) අළුත් කර්‍මයන්ගේ පහළ වීමෙකුත් නැද්ද, මතු භවයක් කෙරෙහි නො ඇලුණු සිතැති, ක්‍ෂීණ වූ ප්‍රතිසන්‍ධිවිඥාන සඞ්ඛාත වීජ ඇති, පුනර්‍භව සඞ්ඛාත සංස්කාර වෘද්ධිය කෙරෙහි කැමැත්තක් නැති, ධෛර්‍ය්‍යසම්පන්න වූ ඒ රහත්හු මේ පහන මෙන් අවසන් සිත නිරුද්ධ වීමෙන් පිරිනිවෙත්. මේ කරුණින් ද සඞ්ඝයා උතුම් රුවනි නොහොත් මේ ද සඞ්ඝයා ගේ උතුම් රුවන් බවෙකි). මේ සත්‍යබලයෙන් සෙත් වේවා.",
                        "type": "paragraph"
                    }
                ],
                "footnotes": []
            }
        },
        {
            "pageNum": 14,
            "pali": {
                "entries": [
                    {
                        "type": "paragraph",
                        "text": ""
                    },
                    {
                        "type": "gatha",
                        "text": "15. යානීධ භූතානි සමාගතානි\nභුම්මානි වා යානි ව අන්තළික්ඛෙ\nතථාගතං දෙවමනුස්සපූජිතං\nබුද්ධං නමස්සාම සුවත්ථි හොතු.{1}",
                        "level": 1
                    },
                    {
                        "type": "gatha",
                        "text": "16. යානීධ භූතානි සමාගතානි\nභුම්මානි වා යානි ව අන්තළික්ඛෙ.\nතථාගතං දෙවමනුස්සපූජිතං\nධම්මං නමස්සාම සුවත්ථි හොතු.{2}",
                        "level": 1
                    },
                    {
                        "type": "gatha",
                        "text": "17. යානීධ භූතානි සමාගතානි\nභුම්මානි වා යානි ව අන්තළික්ඛෙ\nතථාගතං දෙවමනුස්සපූජිතං\nසඞ්ඝං නමස්සාම සුවත්ථි හොතු.{3}",
                        "level": 1
                    },
                    {
                        "type": "centered",
                        "text": "රතනසුත්තං.",
                        "level": 1
                    },
                    {
                        "type": "heading",
                        "text": "7. තිරොකුඩ්ඩසුත්තං",
                        "level": 1
                    },
                    {
                        "type": "gatha",
                        "text": "1. තිරොකුඩ්ඪෙසු තිට්ඨන්ති සන්ධිසිඞ්ඝාටකෙසු ච\nද්වාරබාහාසු තිට්ඨන්ති ආගන්ත්වාන සකං ඝරං.",
                        "level": 1
                    },
                    {
                        "type": "gatha",
                        "text": "2. පහූතෙ අන්නපානම්හි ඛජ්ජභොජ්ජෙ උපට්ඨිතෙ\nන තෙසං කොචි සරති සත්තානං කම්මපච්චයා.",
                        "level": 1
                    },
                    {
                        "type": "gatha",
                        "text": "3. එවං දදන්ති ඤාතීනං යෙ හොන්ති අනුකම්පකා\nසුචිං පණීතං කාලෙන කප්පියං පානභොජනං.",
                        "level": 1
                    },
                    {
                        "type": "gatha",
                        "text": "4. **ඉදං වො ඤාතීනං හොතු**, සුඛිතා හොන්තු ඤාතයො\nතෙ ච තත්ථ සමාගන්ත්වා ඤාතිපෙතා සමාගතා",
                        "level": 1
                    },
                    {
                        "type": "gatha",
                        "text": "5. පහූතෙ අන්නපානම්හි සක්කච්චං අනුමොදරෙ.\n“චිරං ජීවන්තු නො ඤාතී යෙසං හෙතු ලභාමසෙ\nඅම්හාකං ච කතා පූජා” දායකා ච අනිප්ඵලා.",
                        "level": 1
                    },
                    {
                        "type": "gatha",
                        "text": "6. න හි තත්ථ කසී අත්ථි ගොරක්ඛෙත්ථ න විජ්ජති\nවණිජ්ජා ත දීසි නත්ථි හිරඤ්ඤෙන [කයාක්කයං\nඉතො දින්නෙන යාපෙන්ති පෙතා කාලකතා තහිං.",
                        "level": 1
                    },
                    {
                        "type": "gatha",
                        "text": "7. උන්නමෙ උදකං වට්ඨං{2} යථා නින්නං පවත්තති\nඑවමෙව ඉතො දින්නං පෙතානං උපකප්පති.",
                        "level": 1
                    }
                ],
                "footnotes": [
                    {
                        "type": "footnote",
                        "text": "1. 2, 3, විපශ්යිස්මිං විශ්චභුවික්රකුච්ඡන්දෙ \nභාමකනකමුනිස්මිං කාශ්යපෙ \nමහායශෙ ශාක්යමුනිස්මි ගෞතමෙ \nඑතෙෂු බුද්ධෙෂු මහර්ධිකෙෂු \nයා දෙවතා සත්ති අභිප්රසන්නා \nවාඪම්පි තා රක්ෂන්තු ච කරොන්තු \n\nස්වසත්යයනං මානුෂියා ප්රජායෙ\nයො ධර්මචක්රං අහිභූය ලොකං\nප්රවර්තයති සර්වභූතානුකම්පී\nඑතාදාශං දෙවමනුෂ්යශ්රෙෂ්ඨං\nබුද්ධං නමස්යාම සුස්වස්ති හොතු.\nධර්මං නමස්යාම සුස්වස්ති හොතු. \nසඞ්ඝං නමස්යාම සුස්වස්ති හොතු."
                    },
                    {
                        "type": "footnote",
                        "text": "2. වුට්ඨං (සී. මු.)"
                    }
                ]
            },
            "sinh": {
                "entries": [
                    {
                        "text": "(සක්දෙව්රජ කී ය:)",
                        "type": "paragraph"
                    },
                    {
                        "text": "15. පොළොවෙහි හෝ අහසෙහි වූ යම් අමනුෂ්‍ය කෙනෙක් මෙ තන්හි රැස් වූහු ද, ඔහු ද, මම් ද (අපි) දෙව් මිනිසුන් විසින් පුදන ලද තථාගත බුදුරජාණන් වහන්සේ නමදිමු. (සත්ත්‍වප්‍රජාවට) සෙත් වේවා.",
                        "type": "paragraph"
                    },
                    {
                        "text": "16. පොළොවෙහි හෝ අහසෙහි වූ යම් අමනුෂ්‍ය කෙනෙක් මෙ තන්හි රැස් වූහු ද, ඔහු ද, මම් ද දෙව්මිනිසුන් විසින් පුදන ලද, (බුද්ධාදීන්) විසින් අවබෝධ කරන ලද බැවින් තථාගත වු ධර්‍මය නමදිමු. (සත් වගට) සෙත් වේවා.",
                        "type": "paragraph"
                    },
                    {
                        "text": "17. පොළොවෙහි හෝ අහසෙහි වූ යම් අමනුෂ්‍ය කෙනෙක් මෙ තන්හි රැස් වූහු ද, ඔහු ද, මම් ද දෙව්මිනිසුන් විසින් පුදන ලද (ආත්මහිතයෙහි පිළිපන්නවුන් විසින් යෑ යුතු මඟෙහි යෑම් ආදී අරුතින්) තථාගත වූ සඞ්ඝයා නමදිමු සෙත් වේවා.",
                        "type": "paragraph"
                    },
                    {
                        "text": "රතන සූත්‍රය යි.",
                        "type": "centered",
                        "level": 1
                    },
                    {
                        "text": "7. තිරොකුඩ්ඩ සූත්‍රය",
                        "type": "heading",
                        "level": 1
                    },
                    {
                        "text": "1. (ඥාතිප්‍රේතයෝ) තමන් පෙර වුසූ ගෙය කරා අවුත් බිත්තියෙන් පිටත්හි ද ගෘහසන්‍ධි භිත්තිසන්‍ධි සතරමංහන්දි තුන්මංහන්දි යන මේ තන්හි ද දොරබා නිසා ද සිටිත්.",
                        "type": "paragraph"
                    },
                    {
                        "text": "2. බොහෝ වූ ආහාරපාන ද ඛාද්‍යභෝජ්‍ය ද පිළියෙල ව ඇති කල්හි (පවා) ඒ ප්‍රේතලෝකයෙහි උපන් සත්ත්‍වයන්ගේ අකුශලකර්‍ම හේතුවෙන් කිසි ම නෑදෑයෙක් ඔවුන් සිහි නො කෙරෙයි.",
                        "type": "paragraph"
                    },
                    {
                        "text": "3, 4, 5. නෑයන් අතුරෙන් යම් කෙනෙක් ඔවුනට අනුකම්පා කරන්නාහු වෙත් ද. ඔහු තුමූ “මේ පින පරලොව ගිය අප නෑයනට වේවා. ඒ නෑයෝ සුවපත් වෙත්වා”යි කියා, ඔවුන් අවුත් සිට කල්හි, ඒ නෑයන් උදෙසා පවිත්‍ර වූ ප්‍රණීත වූ කැප වූ ආහාර පාන දන් දෙත්. ඒ ඥාති ප්‍රේතයෝ ද ඒ දන් දෙන තැනට නොයෙක් දිශාභාගයෙන් අවුත් එක් රැස් වූවාහු, තමන් උදෙසා බොහෝ ආහාරපාන දෙනු ලබන කල්හි සකසා (කම් පල අදහා) පින් අනුමෝදන් කෙරෙත් (හෙවත් එය අනුව සතුටු වෙත්). “යම් කෙනෙකුන් නිසා (පින් අනුමෝදන් කළ) මෙ කෙණෙහි සම්පත් ලබමෝ ද, ඒ අප නෑයෝ බොහෝ කල් ජීවත් වෙත්වා. ඔවුන් විසින් දන් දී පින් පැමිණවීම් වශයෙන් අපට ද පූජා කරන ලදී” යී ද තුති කෙරෙත්. ඒ දන් දුන් දායකයෝ ද ඵල රහිතයෝ නො වෙති.",
                        "type": "paragraph"
                    },
                    {
                        "type": "paragraph",
                        "text": ""
                    },
                    {
                        "type": "paragraph",
                        "text": ""
                    },
                    {
                        "text": "6. ඒ ප්‍රේතලෝකයෙහි සී සෑමෙක් නැත්තේ ය. ගව පාලනයත් එහි නැත්තේ ය. (සම්පත් ලැබීමට හේතු වූ) එබඳු වෙළෙඳාමෙකුත් නැත්තේ ය. රන්රිදියෙන් කරණ ගණුදෙනුවෙක් ද නැත්තේ ය. (හුදෙක් ) මැරී ඒ ප්‍රේතවිෂයයට පැමිණියෝ මේ මිනිස්ලොව වසන නෑමිතුරන් විසින් දෙන ලද පිනෙකින් ඒ ප්‍රේතයෝනියෙහි යැපෙත්.",
                        "type": "paragraph"
                    },
                    {
                        "text": "7. යම්සේ උස් බිමෙක් වට ජලය මිටි බිම කරා ගලා බසී ද, එ පරිද්දෙන් ම මේ මිනිස්ලොවෙහි දී ඥාත්‍යාදීන් විසින් දුන් දානය (එහි විපාක වශයෙන්) ප්‍රේතයන්හට පැමිණේ (ලැබේ).",
                        "type": "paragraph"
                    }
                ],
                "footnotes": []
            }
        },
        {
            "pageNum": 16,
            "pali": {
                "entries": [
                    {
                        "type": "gatha",
                        "text": "8. යථා වාරිවහා පූරා පරිපූරෙන්ති සාගරං\nඑවමෙව ඉතො දින්නං, පෙතානං උපකප්පති.",
                        "level": 1
                    },
                    {
                        "type": "gatha",
                        "text": "9. අදාසි මෙ අකාසි මෙ ඤාතිමිත්තා සඛා ච මෙ\nපෙතානං දක්ඛිණං දජ්ජා පුබ්බෙ කතමනුස්සරං.",
                        "level": 1
                    },
                    {
                        "type": "gatha",
                        "text": "10. න හි රුන්නං ව සොකො වා යා චඤ්ඤා පරිදෙවනා\nන තං පෙතානමත්ථාය එවං තිට්ඨන්ති ඤාතයො.",
                        "level": 1
                    },
                    {
                        "type": "gatha",
                        "text": "11. අයං ඛො දක්ඛිණා දින්නා සඞ්ඝම්හි සුප්පතිට්ඨිතා,\nදීඝරත්තං හිතායස්ස ඨානසො උපකප්පති.",
                        "level": 1
                    },
                    {
                        "type": "gatha",
                        "text": "12. සො ඤාතිධම්මො ච අයං නිදස්සිතො\nපෙතාන පූජා ච කතා උළාරා.\nබලඤ්ච භික්ඛූනමනුප්පදින්නං\nතුම්හෙහි පුඤ්ඤං පසුතං අනප්පකං.",
                        "level": 1
                    },
                    {
                        "type": "centered",
                        "text": "තිරොකුඩ්ඩසුත්තං.",
                        "level": 1
                    },
                    {
                        "type": "heading",
                        "text": "8. නිධිකණ්ඩසුත්තං",
                        "level": 1
                    },
                    {
                        "type": "gatha",
                        "text": "1. නිධිං නිධෙති පුරිසො ගම්භීරෙ ඔදකන්තිකෙ\nඅත්ථෙ කිච්චෙ සමුප්පන්නෙ අත්ථාය මෙ භවිස්සති.",
                        "level": 1
                    },
                    {
                        "type": "gatha",
                        "text": "2. රාජතො වා දුරුත්තස්ස චොරතො පීළිතස්ස වා\nඉණස්ස වා පමොක්ඛාය දුබ්භික්ඛෙ ආපදාසු වා,\nඑතදත්ථාය ලොකස්මිං නිධි නාම නිධීයති.",
                        "level": 1
                    },
                    {
                        "type": "gatha",
                        "text": "3. තාව සුනිහිතො{1} සන්තො ගම්භීරෙ ඔදකන්තිකෙ\nන සබ්බො සබ්බදා එව තස්ස තං උපකප්පති.",
                        "level": 1
                    }
                ],
                "footnotes": [
                    {
                        "type": "footnote",
                        "text": "1. තාව සසුනිහිතො (කෙසුවි පොත්ථකෙසු)"
                    }
                ]
            },
            "sinh": {
                "entries": [
                    {
                        "text": "8. යම් සේ මහා නදීහු කුඩා ගං හෝ ආදියෙහි රැස් වන දියෙන් පිරුණාහු සාගරය පුරාලත් ද, එ පරිද්දෙන් ම මේ මිනිස්ලොවෙහිදී ඥාත්‍යාදීන් විසින් දුන් දානය (එහි විපාක වශයෙන්) ප්‍රේතයන්හට පැමිණේ (ලැබේ).",
                        "type": "paragraph"
                    },
                    {
                        "text": "9. “මට මෙ බඳු ධනයක් හෝ ධාන්‍යයක් හෝ දුන්නේ ය යි ද, මගේ මේ කටයුත්ත කෙළේ ය යි ද, මොහු තුමූ මගේ නෑයෝ ය යි ද, මිත්‍රයෝ ය යි ද (අසුවලා වැළි කෙළියෙහි පටන්) මාගේ යහළුවා ය”යි ද මෙසේ පෙර කරණ ලද උපකාර සිහි කෙරෙමින් මිය පරලොව ගියවුන් උදෙසා දන් දිය යුත්තේ ය.",
                        "type": "paragraph"
                    },
                    {
                        "text": "10. හැඬීමක් හෝ ශෝක කිරීමක් හෝ යම් අනෙක් වැලැපීමෙක් හෝ වේ ද, එය පරලොව ගියවුන්ගේ ප්‍රයෝජනය පිණිස නො වේ. ඒ ප්‍රෙතයෝ එහි උපන් පරිද්දෙන් ම සිටිත්. (මේ ඇඩුම්වැලැපුම්වලින් වැඩෙක් නො වේ.)",
                        "type": "paragraph"
                    },
                    {
                        "text": "11. (මහරජ, ඔබ විසින් අද තමන්ගේ ඥාතිසමූහයා උදෙසා) යම් දානයෙක් දෙන ලද්දේ ද, ඒ මේ දක්‍ෂිණාව (නිරුත්තර පුණ්‍යක්‍ෂේත්‍ර හෙයින්) සඞ්ඝයා කෙරෙහි සුපිහිටියේ වන්නේ ය. එ හෙයින් එය ඒ ප්‍රේතසමුහයාට දීර්‍ඝ කාලයක් හිත සැප පිණිස විපාක දෙයි. එ කෙණෙහි ම (පහළ වීම් වශයෙන්) විපාක දෙයි.",
                        "type": "paragraph"
                    },
                    {
                        "text": "12. (මේ දක්‍ෂිණාවදෙන්නාවූ ඔබ විසින්) නෑයන් විසින් නෑයන් සඳහා කට යුතු වූ ඥාතිධර්‍මය දක්වන ලදි. (නිරර්‍ත්‍ථක වූ හැඬීම් වැලපීම් ආදිය ඥාතිධර්‍මය නො වෙයි.) (ප්‍රෙතයන් ප්‍රේතභාවයෙන් මුදවා දිව්‍යසම්පත්තියට පමුණවන්නාවු ඔබ විසින්) ප්‍රේතයනට මහත් වු පූජාවෙක් ද කරණ ලදී. (බුද්ධප්‍රමුඛ සඞ්ඝයා ආහාරපානාදීන් සන්තර්‍පණය කරවන්නාවූ ඔබ විසින්) භික්‍ෂූන්හට ශක්තිය ද දෙන ලදී. ඔබ විසිනුදු මහත් වූ පිනෙක් රැස් කර ගන්නා ලදී.",
                        "type": "paragraph"
                    },
                    {
                        "text": "තිරොකුඩ්ඩ සූත්‍රය යි.",
                        "type": "centered",
                        "level": 1
                    },
                    {
                        "text": "8. නිධිකණ්ඩ සූත්‍රය",
                        "type": "heading",
                        "level": 1
                    },
                    {
                        "text": "1. “අභිවෘද්ධිදායක යම් කිසි කටයුත්තක් ඇති වූ කල්හි මගේ ප්‍රයෝජනය පිණිස වන්නේ ය”යි සලකා පුරුෂයෙක් ජලය තාක් ගැඹුරු වූ තැනෙක්හි නිධානයක් කෙරෙයි.",
                        "type": "paragraph"
                    },
                    {
                        "text": "2. ‘මෙ තෙමේ සොරෙක අපරාධකාරයෙකැ’යි සතුරන් විසින් රජුට දැන්වූ කල්හි (එසේ දෝෂාරෝපණ වශයෙන්) නපුරු කොට කියන ලද්දහුට රජුගෙන් මිදීම පිණිස ද, සොරුන් විසින් පෙළන ලද්දහුට ඔවුන්ගෙන් මිදීම පිණිස ද, (නයහිමියන් තමන්ගේ නයමුදල් ඉල්ලා බල කරණ කල්හි ඒ) නයින් මිදීම පිණිස ද, දුර්භික්‍ෂ කාලයෙක්හි හෝ විපතක් පැමිණි කල්හි හෝ ප්‍රයෝජනය පිණිස වන්නේ ය යි සලකා ලෝකයෙහි (රන්රුවන් ආදි) ධනය නිධාන කොට තබනු ලැබේ.",
                        "type": "paragraph"
                    },
                    {
                        "text": "3. ජලයට සමීප තාක් ගැඹුරු වූ තැනෙක්හි එතරම් සුරක්‍ෂිත ලෙස තැන්පත් කොට තබන ලද්දාවූ ඒ සියලු ධනය හැම කල්හි ම ඔහුගේ කාර්‍ය්‍යසිද්ධිය පිණිස නො වෙයි.",
                        "type": "paragraph"
                    }
                ],
                "footnotes": []
            }
        },
        {
            "pageNum": 18,
            "pali": {
                "entries": [
                    {
                        "type": "gatha",
                        "text": "4. නිධි වා ඨානා චවති සඤ්ඤා වාස්ස විමුය්හති.\nනාගා වා අපනාමෙන්ති යක්ඛා වාපි හරන්ති නං.",
                        "level": 1
                    },
                    {
                        "type": "gatha",
                        "text": "5. අප්පියා වාපි දායාදා උද්ධරන්ති අපස්සතො\nයදා පුඤ්ඤක්ඛයො හොති සබ්බමෙතං විනස්සති",
                        "level": 1
                    },
                    {
                        "type": "gatha",
                        "text": "6. යස්ස දානෙන සීලෙන සංයමෙන දමෙන ච\nනිධී සුනිහිතො හොති ඉත්ථියා පුරිසස්ස වා",
                        "level": 1
                    },
                    {
                        "type": "gatha",
                        "text": "7. චෙතියම්හි{1} ච සඞ්ඝෙ වා පුග්ගලෙ අතිථීසු වා\nමාතරි පිතරි වාපි අථො ජෙට්ඨම්හි භාතරි",
                        "level": 1
                    },
                    {
                        "type": "gatha",
                        "text": "8. එසො නිධි සුනිහිතො අජෙය්යො අනුගාමිකො\nපහාය ගමනීයෙසු එතං ආදාය ගච්ඡති.",
                        "level": 1
                    },
                    {
                        "type": "gatha",
                        "text": "9. අසාධාරණමඤ්ඤෙසං අචොරහරණො නිධි\nකයිරාථ ධීරො පුඤ්ඤානි යො නිධී අනුගාමිකො",
                        "level": 1
                    },
                    {
                        "type": "gatha",
                        "text": "10. එස දෙවමනුස්සානං සබ්බකාමදදො නිධි\nයං යදෙවාහිපත්ථෙන්ති සබ්බමෙතෙන ලබ්භති.",
                        "level": 1
                    },
                    {
                        "type": "gatha",
                        "text": "11. සුවණ්ණතා සුස්සරතා සුසණ්ඨාන සුරූපතා\nආධිපච්චපරිවාරං සබ්බමෙතෙන ලබ්භති.",
                        "level": 1
                    },
                    {
                        "type": "gatha",
                        "text": "12. පදෙසරජ්ජං ඉස්සරිය, චක්කවත්තිසුඛං පියං\nදෙවරජ්ජම්පි දිබ්බෙසු සබ්බමෙතෙන ලබ්භති.",
                        "level": 1
                    },
                    {
                        "type": "gatha",
                        "text": "13. මානුසිකා ච සම්පත්ති දෙවලොකෙ ච යා රති\nයා ච නිබ්බාණසම්පත්ති සබ්බමෙතෙන ලබ්භති.",
                        "level": 1
                    },
                    {
                        "type": "gatha",
                        "text": "14. මිත්තසම්පදමාගම්ම යොනිසොව පයුඤ්ජතො.\nවිජ්ජාවිමුත්තිවසීභාවො සබ්බමෙතෙන ලබ්භති.",
                        "level": 1
                    }
                ],
                "footnotes": [
                    {
                        "type": "footnote",
                        "text": "1. තං පනෙතං තිවිධං හොති පරිභොගවෙතියං උද සස්කචෙතියං ධාතුවෙතියන්ති. තත්ථ බොධිරුක්ඛො පරිභොගචෙතියං බුද්ධපටිමා උද්දිස්සකචේතියං ධාතුගබ්භථුපා සධාතුකා ධාතු චෙතියං (අට්ඨකතා)."
                    }
                ]
            },
            "sinh": {
                "entries": [
                    {
                        "text": "4. නිධානය හෝ තුබූතැනින් ඉවත් වෙයි. නිධාන කළ තැන පිළිබඳ ඔහුගේ සංඥාව හෝ මුළා වෙයි. (තුබූ තැන හැඳින ගත නොහැකි වෙයි.) නාගයෝ හෝ නිධානය තුබූ තැනින් ඉවත් කෙරෙත්. යක්‍ෂයෝ හෝ එය හැර ගෙණ යත්.",
                        "type": "paragraph"
                    },
                    {
                        "text": "5. අප්‍රිය වූ දායාදයෝ (උරුමක්කාරයෝ) හෝ ඔහු නො දැක්කදී පොළොව සාරා නිධානය ගොඩ ගණිත්. යම් කලෙක්හි පින් ගෙවී යෑමක් වේ ද, එකල්හි මේ සියල්ල වැනසෙයි.",
                        "type": "paragraph"
                    },
                    {
                        "text": "6. යම් ස්ත්‍රියක විසින් හෝ පුරුෂයකු විසින් හෝ දානයෙන් ද ශීලයෙන්ද චිත්තසංයම සඞ්ඛ්‍යාත සමාධියෙන් ද ක්ලේශෝපශම සඞ්ඛ්‍යාත ප්‍රඥායෙන් ද මනා සේ නිධානයක් කරණ ලද්දේ වේ ද,",
                        "type": "paragraph"
                    },
                    {
                        "text": "7. චෛත්‍යය{1} කෙරෙහිද, සඞ්ඝයා කෙරෙහි ද, යම් පුද්ගලයකු ද කෙරෙහි ද, ආගන්තුකයකු කෙරෙහි ද, මව කෙරෙහි ද, පියා කෙරෙහි ද, නැවත වැඩි මහලු සහෝදරයා (හෝ සහෝදරිය) කෙරෙහි ද,",
                        "type": "paragraph"
                    },
                    {
                        "text": "8. දානාදි විධියෙන් මනා සේ තැන්පත් කරණ ලද මේ නිධානය ද, අන්‍යයන් විසින් දිනා ගන්නට නො හැකි ය. පරලොව යන කල්හි ද විපාක දීම් වශයෙන් තමා අනු ව යන්නේ වෙයි. මරණාවස්ථාවෙහි හැර දමා යෑ යුතු වස්තූන් ඇති කල්හි මේ පුණ්‍යානිධානය රැගෙණ පර ලොව යෙයි.",
                        "type": "paragraph"
                    },
                    {
                        "text": "9. පුණ්‍යානිධානය තෙමේ අන්‍යයන්ට සාධාරණ නොවේ. සොරුන් විසින් පැහැර ගත නො හැකිය. (පරලොව යන කල්හි ද) තමා අනුව යන්නා වු යම් පුණ්‍යනිධානයෙක වේ ද, නුවණැත්තේ ඒ පින්කම කරන්නේ ය.",
                        "type": "paragraph"
                    },
                    {
                        "text": "10. මේ පුණ්‍යකර්‍මය තෙමේ දෙවිමිනිසුන්ට සියලු කැමැති සම්පත් දෙන නිධානය යි. ඔහු යමක් යමක් ප්‍රාර්‍ත්‍ථනා කෙරෙද්ද ඒ සියල්ල මේ පුණ්‍ය නිධානය කරණ කොට ගෙණ ලැබේ.",
                        "type": "paragraph"
                    },
                    {
                        "text": "11. සුන්‍දර ඡවිවර්‍ණ ඇති බව ද, මධුර වූ ස්වර ඇති බව ද, අඟපසඟ පිළිබඳ මනා සටහන් ඇති බව ද, සුන්‍දර ශරීර ඇති බව ද, අධිපතිභාවය හා පිරිවර ජනයා (පිරිස්) ද යන සියල්ල මේ පුණ්‍යනිධානය කරණ කොට ගෙණ ලැබේ.",
                        "type": "paragraph"
                    },
                    {
                        "text": "12. ප්‍රදේශරාජ්‍යය ද, එක් එක් දිවයිනෙහි අණසක පැවැත්වීම නම් වූ ද්වීපචක්‍රවර්තිරාජ්‍යය ද, ප්‍රිය වූ මුළු සතර මහ දිවයිනේ අණසක පැවැත්වීම සඞ්ඛ්‍යාත චක්‍රවර්තිරාජ්‍ය සැපය ද දෙව්ලොව දිව්‍ය සැපය ද යන සියල්ල මේ පුණ්‍යනිධානය කරණ කොට ගෙණ ලැබේ.",
                        "type": "paragraph"
                    },
                    {
                        "text": "13. යම් මනුෂ්‍ය සම්පත්තියක් ඇද්ද, දෙව්ලොව යම් සුඛයක් හා සුඛ වස්තුවකුත් ඇද්ද, යම් නිර්‍වාණසම්පත්තියකුත් ඇද්ද, ඒ සියල්ල මේ පුණ්‍යනිධානයකරණ කොට ගෙණ ලැබේ.",
                        "type": "paragraph"
                    },
                    {
                        "text": "14. කල්‍යාණමිත්‍රසම්පත්තිය නිසා උපායමනස්කාරයෙන් භාවනායෝගයෙහි යෙදෙන්නහුට පූර්වේනිවාසානුස්මෘතිඥානාදි ත්‍රිවිද්‍යාවෝ ය, අෂ්ටසමාපත්ති හා නිර්‍වාණධර්‍මසඞ්ඛ්‍යාත විමුක්තිය යන මොවුන් කෙරෙහි වශීභාවය ද යන සියල්ල මේ පුණ්‍යනිධානය කරණ කොට ගෙණ ලැබේ.",
                        "type": "paragraph"
                    }
                ],
                "footnotes": [
                    {
                        "type": "footnote",
                        "text": "1. ඒ චෛත්‍යය වනාහි පරිභෝග චෛත්‍යය උද්දිස්සකචෛත්‍යය ධාතුචෛත්‍යය යී ත්‍රිවිධ වෙයි. ඔවුන් අතුරෙන් බෝරුක පරිභෝග චෛත්‍යය යී. බුදුපිළිමය උද්දිස්සකචෛත්‍යය යි. ධාතු සහිත දාගප් ස්තූප ධාතුචෛත්‍යය යි. (අටුවායි)"
                    }
                ]
            }
        },
        {
            "pageNum": 20,
            "pali": {
                "entries": [
                    {
                        "type": "gatha",
                        "text": "15. පටිසම්භිදා විමොක්ඛා ච යා ච සාවකපාරමී\nපච්චෙකබොධි බුද්ධභූමි සබ්බමෙතෙන ලබ්භති.",
                        "level": 1
                    },
                    {
                        "type": "gatha",
                        "text": "16. එවං මහත්ථිකා එසා යදිදං පුඤ්ඤසම්පදා\nතස්මා ධීරා පසංසන්ති පණ්ඩිතා කතපුඤ්ඤතං.",
                        "level": 1
                    },
                    {
                        "type": "centered",
                        "text": "නිධිකණ්ඩසුත්තං.",
                        "level": 1
                    },
                    {
                        "type": "heading",
                        "text": "9. මෙත්තසුත්තං.",
                        "level": 1
                    },
                    {
                        "type": "gatha",
                        "text": "1. කරණීයමත්ථකුසලෙන\nයන්තං{1} සන්තං පදං අභිසමෙච්ච\nසක්කො උජූ ච සූජූ ච{2}\nසුවචො චස්ස මුදු අනතිමානී.",
                        "level": 1
                    },
                    {
                        "type": "gatha",
                        "text": "2. සන්තුස්සකො ච සුභරො ච\nඅප්පකිච්චො ච සල්ලහුකවුත්ති,\nසන්තින්ද්රියො ච නිපකො ච\nඅප්පගබ්භො කුලෙසු අනනුගිද්ධො.",
                        "level": 1
                    },
                    {
                        "type": "gatha",
                        "text": "3. න ච ඛුද්දං සමාචරෙ{3}\nකිඤ්චි යෙන විඤ්ඤූ පරෙ උපවදෙය්යුං\nසුඛිනො වා{4} ඛෙමිනො හොන්තු\nසබ්බෙ සත්තා{5} භවන්තු සුඛිතත්තා.",
                        "level": 1
                    },
                    {
                        "type": "gatha",
                        "text": "4. යෙ කෙචි පාණභූතත්ථි\nතසා වා ථාවරා වා අනවසෙසා{6},\nදීඝා වා යෙ මහන්තා වා{7}\nමජ්ඣිමා රස්සකා’ණුකථූලා.{8}",
                        "level": 1
                    },
                    {
                        "type": "gatha",
                        "text": "5. දිට්ඨා වා යෙව අද්දිට්ඨා{9}\nයෙ ච දූරෙ වසන්ති අවිදූරෙ\nභූතා වා සම්භවෙසී වා{10}\nසබ්බෙ සත්තා{11} භවන්තු සුඛිතත්තා.",
                        "level": 1
                    }
                ],
                "footnotes": [
                    {
                        "type": "footnote",
                        "text": "1. යන්තසන්තං. මඡස"
                    },
                    {
                        "type": "footnote",
                        "text": "2. සුහුජූ ච. (මඡසං), සද්දනීතියම්පි."
                    },
                    {
                        "type": "footnote",
                        "text": "3. ඛුද්දමාචරෙ (මඡසං)"
                    },
                    {
                        "type": "footnote",
                        "text": "4. ව. (මඡස)"
                    },
                    {
                        "type": "footnote",
                        "text": "5. සබ්බසත්තා (මඡස)"
                    },
                    {
                        "type": "footnote",
                        "text": "6. ථාවරාවනවසෙසා (මඡස)"
                    },
                    {
                        "type": "footnote",
                        "text": "7. යෙ ව මහන්තා (මඡස)"
                    },
                    {
                        "type": "footnote",
                        "text": "8. රස්සකා අණුකථූලා (මඡස)"
                    },
                    {
                        "type": "footnote",
                        "text": "9. අදිඨා."
                    },
                    {
                        "type": "footnote",
                        "text": "10. භූතා ව සම්භවෙසී ව. (මඡස)"
                    },
                    {
                        "type": "footnote",
                        "text": "11. සබ්බසත්තා. (මඡස)"
                    }
                ]
            },
            "sinh": {
                "entries": [
                    {
                        "text": "15. අර්‍ත්‍ථ - ධර්‍ම - නිරුක්ති - ප්‍රතිභානප්‍රඥාසඞ්ඛ්‍යාත පටිසම්භිදාවන් ද, අෂ්ටවිධවිමෝක්‍ෂයන් ද, බුද්ධශ්‍රාවකයන් විසින් ලැබිය යුතු වූ ශ්‍රාවකසම්පත්තිය සිද්ධ කර්‍ණ යම් ශ්‍රාවකපාරමිතාවක් ඇත් නම් එය ද, ස්වයම්භූභාවය සිද්ධ කරණ යම් ප්‍රත්‍යෙකබෝධියක් (පසේ බුදුබවක්) ඇත් නම් එය ද, සියලු සත්ත්‍වයන්ට උතුම් බව සිද්ධ කරණ අනුත්තර බුද්ධභූමියක් (ලොව්තුරා බුදු බවක්) ඇත් නම් එය ද යන සියල්ල මේ පුණ්‍යනිධානය කරණ කොට ගෙණ ලැබේ.",
                        "type": "paragraph"
                    },
                    {
                        "text": "16. යම් මේ පුණ්‍යසම්පත්තියක් වේ ද, එය මෙසේ මහත් අභිවෘද්ධිය පිණිස පවත්නේ ය. එහෙයින් ධීර ගුණයෙන් යුත් පණ්ඩිතයෝ කළ පින් ඇති බව පසසත්.",
                        "type": "paragraph"
                    },
                    {
                        "text": "නිධිකණ්ඩ සූත්‍රය යි.",
                        "type": "centered",
                        "level": 1
                    },
                    {
                        "text": "9. මෙත්ත සූත්‍රය",
                        "type": "heading",
                        "level": 1
                    },
                    {
                        "text": "1. යම් ඒ ශාන්තිපද සඞ්ඛ්‍යාත නිර්‍වාණයෙක් වේ ද, එයට පැමිණ නොහොත් එය අවබෝධ කොට වසනු කැමති අභිවෘද්ධිය සලසා ගැණීමෙහි දක්‍ෂයා විසින් එයට සුදුසු දෙය කළ යුතු ය. නිවණට පැමිණ වසනු කැමැත්තේ සත්‍යප්‍රතිවේධය පිණිස පිළිපදින්නට නොහොත් කිසුණු පිරියම් කිරීම් වත් සමාදන් වීම් ආදී සියලු කාර්‍ය්‍යයන් කරන්නට දක්‍ෂයෙක් වන්නේ ය. (දක්‍ෂයකු විය යුතු ය.) ඍජු වන්නේ ය. එක් වරක් ඍජු වීමෙන් නො නැවතී දිවි ඇති තාක් මනා කොට ඍජු වන්නේ ය. අන්‍යයන් ගේ අවවාද මනාකොට පිළිගැණීම් වශයෙන් සුවච වන්නේ ය. මෘදු වන්නේ ය. අතිමාන ඇත්තේ නො වන්නේ ය.",
                        "type": "paragraph"
                    },
                    {
                        "text": "2. ලද දෙයින් සතුටු වන්නෙක් ද පහසුවෙන් පෝෂණය කළ හැක්කෙක් ද, (ස්වකීය ශ්‍රමණධර්‍මය කිරීමට පමණක් සීමා වූ ) ස්වල්ප කටයුතු ඇත්තෙක් ද, සැහැල්ලු පැවතුම් ඇත්තෙක් ද, සන්හුන් ඉඳුරන් ඇත්තෙක් ද ප්‍රඥා ඇත්තෙක් ද, හැඩි දැඩි අසංවර ගති නැත්තෙක් ද, කුලයන් කෙරෙහි (සිවු පසයෙහි ඇලීම් ආදී වශයෙන්) නො ඇලුනෙක් ද වන්නේ ය.",
                        "type": "paragraph"
                    },
                    {
                        "text": "3. නුවණැති අන්‍යයන් නින්‍දා කරණ සුළු වරදක් වත් නො කරන්නේ ය. “සියලු සත්ත්‍වයෝ සැප ඇත්තෝ වෙත්වා, භය නැත්තෝ වෙත් වා, සුඛිත සිත් ඇත්තෝ වෙත් වා”යි ද,",
                        "type": "paragraph"
                    },
                    {
                        "text": "4. තෘෂ්ණාභය සහිත හෙයින් තැති ගන්නා සුලු වූ ද තෘෂ්ණා භය ප්‍රහීණ කළ හෙයින් ස්ථාවර වූ ද යම් කිසි සත්ත්‍වයෝ ඇත්තාහු නම්, ඒ සියලුදෙනා ද, (නාගාදි) දික් ශරීර ඇත්තෝ ද, (මත්ස්‍ය හස්ති අසුරා දී) මහත් ශරීර ඇත්තෝ ද, (අශ්වගවමහිෂාදී) මධ්‍යම ප්‍රමාණ ශරීර ඇත්තෝ ද, (වාමනාදී) මිටි සිරුරු ඇත්තෝ ද, (පියෙවි ඇසට නොපෙණෙන) ඉතා සියුම් ශරීර ඇත්තෝ ද, (මස් කැසුබු ආදී) ස්ථුල ශරීර ඇත්තෝ ද,",
                        "type": "paragraph"
                    },
                    {
                        "text": "5. ඇස් හමුවට පැමිණීම් වශයෙන් දුටු සත්තු ද, ඈත සිටි හෙයින් නුදුටු සත්තු ද, යම් සත්ත්‍ව කෙනෙක් දුරත් ලඟත් වසත් නම් ඔහු ද, ඉපදීම අවසන් කළ සත්ත්‍වයෝ ද (ක්‍ෂිණාශ්‍රවයෝ ද), මතු ඉපදීම සොයන (ශෛක්‍ෂ පෘථග්ජන) සත්ත්‍වයෝ ද යන මේ සියලු සත්ත්‍වයෝ සුඛිත සිත් ඇත්තෝ වෙත්’වා යි ද මෙත් වඩන්නේ ය.",
                        "type": "paragraph"
                    }
                ],
                "footnotes": []
            }
        },
        {
            "pageNum": 22,
            "pali": {
                "entries": [
                    {
                        "type": "gatha",
                        "text": "6. න පරො පරං නිකුබ්බෙථ\nනාතිමඤ්ඤෙථ කත්ථචි නං කඤ්චි\nබ්යාරොසනා පටිඝසඤ්ඤා\nනාඤ්ඤමඤ්ඤස්ස දුක්ඛමිච්ඡෙය්ය",
                        "level": 1
                    },
                    {
                        "type": "gatha",
                        "text": "7. මාතා යථා නියං පුත්තං\nආයුසා{1} එකපුත්තමනුරක්ඛෙ\nඑවම්පි සබ්බභූතෙසු\nමානසං භාවයෙ අපරිමාණං.",
                        "level": 1
                    },
                    {
                        "type": "gatha",
                        "text": "8. මෙත්තඤ්ච සබ්බලොකස්මිං\nමානසං භාවයෙ අපරිමාණං\nඋද්ධං අධො ච තිරියං ච\nඅසම්බාධං අවෙරං අසපත්තං{2}",
                        "level": 1
                    },
                    {
                        "type": "gatha",
                        "text": "9. තිට්ඨං චරං නිසින්නො වා\nසයානො වා යාවතස්ස විගතමිද්ධො\nඑතං සතිං අධිට්ඨෙය්ය\nබ්රහ්මමෙතං විහාරං ඉධමාහු{3}",
                        "level": 1
                    },
                    {
                        "type": "gatha",
                        "text": "10. දිට්ඨිං ච අනුපගම්ම සීලවා\nදස්සනෙන සම්පන්නො,\nකාමෙසු විනෙය්ය ගෙධං{4}\nන හි ජාතු ගබ්භසෙය්යං පුනරෙතීති.",
                        "level": 1
                    },
                    {
                        "type": "centered",
                        "text": "මෙත්තසුත්තං.",
                        "level": 1
                    },
                    {
                        "type": "centered",
                        "text": "ඛුද්දකපාඨපාළි නිට්ඨිතා.",
                        "level": 2
                    }
                ],
                "footnotes": [
                    {
                        "type": "footnote",
                        "text": "1. පුත්තමායුසා. (මඡස)"
                    },
                    {
                        "type": "footnote",
                        "text": "2. අවෙරමසපත්තං. (මඡස.)"
                    },
                    {
                        "type": "footnote",
                        "text": "3. විහාරමිධ මාහු. (මඡස)"
                    },
                    {
                        "type": "footnote",
                        "text": "4. විනය ගෙධං. (මඡස)"
                    }
                ]
            },
            "sinh": {
                "entries": [
                    {
                        "text": "6. එකෙක් අනෙකකු නො රවටන්නේ ය. (නො රවටාවා) අනෙකකුට අවමන් නො කරන්නේ ය. (නො කෙරේ වා) බ්‍යාරොසනා නම් වූ කය හා වචනය පිළිබඳ විකෘතියෙන් ද ප්‍රතිඝසංඥා සඞ්ඛ්‍යාත මනෝවිකාරයෙන් ද එකෙක් අනෙකකුට දුකක් නො කැමති වන්නේ ය. (නො කැමති වේවා).",
                        "type": "paragraph"
                    },
                    {
                        "text": "7. මව යම්සේ තමා ගෙන් ඇති වූ එක ම ඖරස පුත්‍රයා ජීවිතපරිත්‍යාගයෙන් වුවත් රක්නේ ද, එ පරිද්දෙන් ම සියලු සත්ත්‍වයන් කෙරෙහි අප්‍රමාණ වූ මෛත්‍රීසහගත සිත වඩන්නේ ය.",
                        "type": "paragraph"
                    },
                    {
                        "text": "8. උඩ ද යට ද සරස ද (සතුරන් ය යි කියන ලද) සීමාවකුදු නැති ව අතරතුර වත් වෛර චේතනා පහළ වීමක් නැති ව, සතුරන් රහිත ව සියලු ලෝකසත්ත්‍වයා කෙරෙහි අප්‍රමාණ වූ මෛත්‍රීසහගත සිත වඩන්නේ ය.",
                        "type": "paragraph"
                    },
                    {
                        "text": "9. සිටින්නේ හෝ ඇවිදින්නේ හෝ උන්නේ හෝ නිදන්නේ හෝ යම් තාක් මෛත්‍රීසහගත සිහිය ඉටනු කැමැත්තේ ද, ඒ තාක් පහ වූ මිද්ධය (අලස බව) ඇති ව ඉටන්නේ ය. මේ මෛත්‍රීවිහරණය මේ බුද්ධශාසනයෙහි ශ්‍රේෂ්ඨ විහරණයැ යි ප්‍රකාශ කළහ.",
                        "type": "paragraph"
                    },
                    {
                        "text": "10. (සත්ත්‍වයෙක් පුද්ගලයෙක් ඇත්තේ ය යන) මිථ්‍යාදෘෂ්ටිය ට නො පැමිණ (ලෝකෝත්තරශීලයෙන්) සිල්වත් වූයේ (සෝතාපත්තිමග්ගසම්මාදිට්ඨි ය යි කියන ලද) දර්‍ශනයෙන් යුක්ත වූයේ (සකෘදාගාමි අනාගාමී මාර්‍ග දෙකින්) වස්තුකාමයන්හි ගිජුබව දුරු කොට, ඒකාන්තයෙන් ම නැවත ගර්‍භයෙක් හි විසීමට නො පැමිණෙන්නේ ය. (ශුද්ධාවාසයයෙක ඉපිද එහි දි ම රහත්බවට පැමිණ පිරිනිවන් පාන්නේ ය.)",
                        "type": "paragraph"
                    },
                    {
                        "text": "මෙත්ත සූත්‍රය යි.",
                        "type": "centered",
                        "level": 1
                    },
                    {
                        "text": "ඛුද්දකපාඨ පෙළ නිමියේ ය.",
                        "type": "centered",
                        "level": 2
                    }
                ],
                "footnotes": []
            }
        }
    ],
    "bookId": 28,
    "pageOffset": 0
}